{
  "count": 391,
  "next": "https://api.staging.crisiscleanup.io/incidents/254/organizations?limit=50&offset=50",
  "previous": null,
  "results": [
    {
      "id": 5120,
      "name": "test",
      "affiliates": [
        5120
      ],
      "url": "http://brevardfl.gov/",
      "primary_location": 79749,
      "secondary_location": null,
      "type_t": "orgType.government",
      "user_count": 1,
      "facebook": "https://www.test.com/BrevardCountyGovt",
      "twitter": "https://twitter.com/BrevardCo_FL",
      "approved_incidents": [
        255,
        255,
        254
      ],
      "approved_roles": [
        5
      ],
      "incident_primary_contacts": [
        {
          "id": 29695,
          "first_name": "test",
          "last_name": "test",
          "email": "test@test.com",
          "mobile": "5353151368"
        }
      ],
      "primary_contacts": [
        {
          "id": 29695,
          "first_name": "test",
          "last_name": "test",
          "email": "test@test.com",
          "mobile": "5353151368"
        }
      ],
      "reported_count": 1,
      "incident_count": 2,
      "claimed_count": null,
      "closed_count": null,
      "last_login": "2022-12-12T18:35:47.438928Z",
      "overdue_count": null
    },
    {
      "id": 828,
      "name": "test-2",
      "affiliates": [
        828
      ],
      "url": "https://www.test.org",
      "primary_location": 73917,
      "secondary_location": null,
      "type_t": "orgType.survivor_client_services",
      "user_count": 197,
      "facebook": null,
      "twitter": null,
      "approved_incidents": [
        102,
        155,
        98,
        61,
        95,
        41,
        42,
        208,
        230,
        210,
        254,
        225,
        255,
        213,
        255
      ],
      "approved_roles": [
        8
      ],
      "incident_primary_contacts": [],
      "primary_contacts": [
        {
          "id": 14358,
          "first_name": "test",
          "last_name": "test",
          "email": "test@test.com",
          "mobile": "5353151368"
        },
        {
          "id": 1449,
          "first_name": "test",
          "last_name": "test",
          "email": "test@test.com",
          "mobile": "5353151368"
        },
        {
          "id": 13835,
          "first_name": "test",
          "last_name": "test",
          "email": "test@test.com",
          "mobile": "5353151368"
        }
      ],
      "reported_count": 170,
      "incident_count": 14,
      "claimed_count": 310,
      "closed_count": 232,
      "last_login": "2022-11-20T20:57:12.527614Z",
      "overdue_count": 78
    }
  ]
}